^D:\РАБОТА\НОВЫЙ СЕМЕСТР!!!!!!!!!!!!!!!\Курсовые MY NEW\HOSTEL\HOSTEL\HOSTEL\PROPERTIES\RESOURCES.RESX
^D:\РАБОТА\НОВЫЙ СЕМЕСТР!!!!!!!!!!!!!!!\Курсовые MY NEW\HOSTEL\HOSTEL\HOSTEL\KLASR.RESX
^D:\РАБОТА\НОВЫЙ СЕМЕСТР!!!!!!!!!!!!!!!\Курсовые MY NEW\HOSTEL\HOSTEL\HOSTEL\STUD.RESX
^D:\РАБОТА\НОВЫЙ СЕМЕСТР!!!!!!!!!!!!!!!\Курсовые MY NEW\HOSTEL\HOSTEL\HOSTEL\ADD_PARENTS.RESX
^D:\РАБОТА\НОВЫЙ СЕМЕСТР!!!!!!!!!!!!!!!\Курсовые MY NEW\HOSTEL\HOSTEL\HOSTEL\ADDSTUD.RESX
^D:\РАБОТА\НОВЫЙ СЕМЕСТР!!!!!!!!!!!!!!!\Курсовые MY NEW\HOSTEL\HOSTEL\HOSTEL\PARRENTSTUD.RESX
^D:\РАБОТА\НОВЫЙ СЕМЕСТР!!!!!!!!!!!!!!!\Курсовые MY NEW\HOSTEL\HOSTEL\HOSTEL\PARRENT.RESX
^D:\РАБОТА\НОВЫЙ СЕМЕСТР!!!!!!!!!!!!!!!\Курсовые MY NEW\HOSTEL\HOSTEL\HOSTEL\OPLATA.RESX
^D:\РАБОТА\НОВЫЙ СЕМЕСТР!!!!!!!!!!!!!!!\Курсовые MY NEW\HOSTEL\HOSTEL\HOSTEL\OPLATASTUD.RESX
^D:\РАБОТА\НОВЫЙ СЕМЕСТР!!!!!!!!!!!!!!!\Курсовые MY NEW\HOSTEL\HOSTEL\HOSTEL\VIGOVOR.RESX
^D:\РАБОТА\НОВЫЙ СЕМЕСТР!!!!!!!!!!!!!!!\Курсовые MY NEW\HOSTEL\HOSTEL\HOSTEL\FORM1.RESX
^D:\РАБОТА\НОВЫЙ СЕМЕСТР!!!!!!!!!!!!!!!\Курсовые MY NEW\Курсовые\Бондаренко\HOSTEL\HOSTEL\ADDSTUD.RESX
^D:\РАБОТА\НОВЫЙ СЕМЕСТР!!!!!!!!!!!!!!!\Курсовые MY NEW\Курсовые\Бондаренко\HOSTEL\HOSTEL\ADD_PARENTS.RESX
^D:\РАБОТА\НОВЫЙ СЕМЕСТР!!!!!!!!!!!!!!!\Курсовые MY NEW\Курсовые\Бондаренко\HOSTEL\HOSTEL\FORM1.RESX
^D:\РАБОТА\НОВЫЙ СЕМЕСТР!!!!!!!!!!!!!!!\Курсовые MY NEW\Курсовые\Бондаренко\HOSTEL\HOSTEL\KLASR.RESX
^D:\РАБОТА\НОВЫЙ СЕМЕСТР!!!!!!!!!!!!!!!\Курсовые MY NEW\Курсовые\Бондаренко\HOSTEL\HOSTEL\OPLATA.RESX
^D:\РАБОТА\НОВЫЙ СЕМЕСТР!!!!!!!!!!!!!!!\Курсовые MY NEW\Курсовые\Бондаренко\HOSTEL\HOSTEL\PARRENT.RESX
^D:\РАБОТА\НОВЫЙ СЕМЕСТР!!!!!!!!!!!!!!!\Курсовые MY NEW\Курсовые\Бондаренко\HOSTEL\HOSTEL\PARRENTSTUD.RESX
^D:\РАБОТА\НОВЫЙ СЕМЕСТР!!!!!!!!!!!!!!!\Курсовые MY NEW\Курсовые\Бондаренко\HOSTEL\HOSTEL\PROPERTIES\RESOURCES.RESX
^D:\РАБОТА\НОВЫЙ СЕМЕСТР!!!!!!!!!!!!!!!\Курсовые MY NEW\Курсовые\Бондаренко\HOSTEL\HOSTEL\STUD.RESX
^D:\РАБОТА\НОВЫЙ СЕМЕСТР!!!!!!!!!!!!!!!\Курсовые MY NEW\Курсовые\Бондаренко\HOSTEL\HOSTEL\VIGOVOR.RESX
^D:\РАБОТА\НОВЫЙ СЕМЕСТР!!!!!!!!!!!!!!!\Курсовые MY NEW\Курсовые\Бондаренко\HOSTEL\HOSTEL\OPLATASTUD.RESX
^D:\РАБОТА\НОВЫЙ СЕМЕСТР!!!!!!!!!!!!!!!\Курсовые MY NEW\Курсовые\Бондаренко\HOSTEL\HOSTEL\STUDREPORT.RESX
^D:\РАБОТА\НОВЫЙ СЕМЕСТР!!!!!!!!!!!!!!!\Дипломы мои\готовое\MY\HOSTEL\HOSTEL\FORM1.RESX
^D:\РАБОТА\НОВЫЙ СЕМЕСТР!!!!!!!!!!!!!!!\Дипломы мои\готовое\MY\HOSTEL\HOSTEL\KLASR.RESX
^D:\РАБОТА\НОВЫЙ СЕМЕСТР!!!!!!!!!!!!!!!\Дипломы мои\готовое\MY\HOSTEL\HOSTEL\OPLATA.RESX
^D:\РАБОТА\НОВЫЙ СЕМЕСТР!!!!!!!!!!!!!!!\Дипломы мои\готовое\MY\HOSTEL\HOSTEL\OPLATASTUD.RESX
^D:\РАБОТА\НОВЫЙ СЕМЕСТР!!!!!!!!!!!!!!!\Дипломы мои\готовое\MY\HOSTEL\HOSTEL\PARRENTSTUD.RESX
^D:\РАБОТА\НОВЫЙ СЕМЕСТР!!!!!!!!!!!!!!!\Дипломы мои\готовое\MY\HOSTEL\HOSTEL\PROPERTIES\RESOURCES.RESX
^D:\РАБОТА\НОВЫЙ СЕМЕСТР!!!!!!!!!!!!!!!\Дипломы мои\готовое\MY\HOSTEL\HOSTEL\STUD.RESX
^D:\РАБОТА\НОВЫЙ СЕМЕСТР!!!!!!!!!!!!!!!\Дипломы мои\готовое\MY\HOSTEL\HOSTEL\VIGOVOR.RESX
^D:\РАБОТА\НОВЫЙ СЕМЕСТР!!!!!!!!!!!!!!!\Дипломы мои\готовое\MY\HOSTEL\HOSTEL\OPLATAREPORT.RESX
^D:\РАБОТА\НОВЫЙ СЕМЕСТР!!!!!!!!!!!!!!!\Дипломы мои\готовое\MY\HOSTEL\HOSTEL\STUDREPORT.RESX
^D:\РАБОТА\НОВЫЙ СЕМЕСТР!!!!!!!!!!!!!!!\Дипломы мои\готовое\MY\HOSTEL\HOSTEL\ADDSTUD.RESX
^D:\РАБОТА\НОВЫЙ СЕМЕСТР!!!!!!!!!!!!!!!\Дипломы мои\готовое\MY\HOSTEL\HOSTEL\ADD_PARENTS.RESX
^D:\РАБОТА\НОВЫЙ СЕМЕСТР!!!!!!!!!!!!!!!\Дипломы мои\готовое\MY\HOSTEL\HOSTEL\PARRENT.RESX
